Who survived on the Titanic
…
df %>% group_by(Ticket, Pclass, Fare) %>% summarize(n = n()) %>% arrange(desc(n))

## # A tibble: 682 x 4
## # Groups:   Ticket, Pclass [681]
##    Ticket       Pclass  Fare     n
##    <chr>        <fct>  <dbl> <int>
##  1 1601         3       56.5     7
##  2 347082       3       31.3     7
##  3 CA. 2343     3       69.6     7
##  4 3101295      3       39.7     6
##  5 347088       3       27.9     6
##  6 CA 2144      3       46.9     6
##  7 382652       3       29.1     5
##  8 S.O.C. 14879 2       73.5     5
##  9 113760       1      120       4
## 10 113781       1      152.      4
## # ... with 672 more rows
…
